5292:
4.5
4.2
3.8
4.1
4.3
4.5
3.9
4.3
3.9
4.4
4.0
4.2
4.2
4.3
4.1
4.2
4.0
4.3
4.2
4.3
4.3
4.1
3.6
4.1
4.2
3.8
4.1
4.1
4.0
4.1
4.2
4.2
4.2
4.2
3.8
4.3
4.2
4.4
4.2
4.1
3.7
4.4
4.2
3.9
3.9
4.1
4.0
3.9
4.1
4.1
4.0
4.4
4.0
4.1
4.0
3.8
3.5
3.9
3.8
4.1
4.1
4.1
4.4
4.0
4.5
4.0
4.4
3.9
4.2
4.3
3.9
3.9
4.1
4.1
4.2
4.0
4.1
4.3
4.1
4.5
4.2
4.0
4.2
4.1
3.9
4.3
4.1
3.8
3.6
4.3
3.8
4.2
4.1
3.9
3.8
4.2
3.8
3.9
3.8
4.0
3.9
4.4
4.3
3.9
3.7
4.0
3.8
4.0
3.8
3.5
3.9
4.0
4.1
4.2
4.5
3.8
3.5
4.1
3.9
4.0
4.2
4.5
4.1
4.2
3.8
4.1
3.7
3.8
4.1
3.9
4.1
4.0
4.2
4.1
3.9
4.0
4.0
4.5
4.0
3.9
4.1
3.9
4.0
4.1
4.3
4.5
3.6
3.8
4.0
4.2
4.1
4.2
4.0
4.3
4.0
4.0
4.0
3.8
3.8
3.9
4.2
4.4
4.2
3.9
4.0
4.2
3.7
4.0
4.1
4.6
4.3
4.1
4.1
4.3
3.9
4.1
4.4
4.0
4.4
3.9
4.3
3.9
3.9
3.8
4.1
4.0
4.1
3.8
3.8
4.2
4.0
3.8
4.0
4.2
4.0
4.0
4.0
3.8
4.4
4.3
4.2
3.9
3.7
4.3
4.0
4.1
3.9
3.9
4.0
3.8
4.2
3.6
3.9
4.3
3.8
3.8
4.1
4.0
4.5
4.4
3.8
4.1
3.9
4.1
4.5
3.6
4.2
3.6
4.0
4.2
4.6
3.9
3.9
4.2
4.0
4.0
3.7
4.1
3.5
4.2
4.3
4.2
3.8
3.6
4.0
4.0
4.4
4.2
4.2
3.9
4.1
4.2
3.7
4.0
4.0
4.4
3.9
3.7
4.2
4.1
4.1
4.0
4.1
4.4
4.1
4.5
4.0
4.0
4.3
4.2
4.0
4.3
3.9
3.9
4.0
4.0
4.2
3.9
4.1
4.7
4.2
3.7
4.1
4.0
3.9
3.9
4.0
4.0
4.2
4.0
4.1
4.0
4.5
4.2
4.5
4.1
4.3
4.2
4.3
3.8
4.2
4.5
4.3
4.5
3.8
4.1
3.6
3.9
4.0
3.9
3.9
3.7
4.3
4.1
4.1
3.8
4.0
4.0
4.0
3.8
4.4
4.5
4.2
3.9
4.0
4.4
3.9
4.2
4.4
3.9
3.9
3.9
4.1
3.8
3.6
3.6
3.9
4.3
4.0
4.1
3.9
4.1
4.5
4.2
3.9
5293:
4.2
3.9
3.8
4.2
3.7
4.1
3.7
4.1
3.7
3.8
3.5
4.2
3.7
3.6
3.8
4.1
4.1
3.9
3.9
3.9
4.5
4.2
4.0
4.0
4.1
4.1
3.8
3.6
3.7
4.1
4.3
3.9
4.1
3.7
3.8
4.0
4.2
4.4
4.0
3.8
3.7
4.0
4.3
4.0
4.0
4.0
4.1
4.0
3.4
4.3
3.4
3.9
4.0
3.8
3.9
3.5
4.1
3.7
3.8
3.8
3.9
3.6
3.7
3.6
3.8
4.5
4.1
3.7
3.2
4.0
4.2
3.7
4.1
4.3
4.0
3.3
3.6
4.1
3.7
4.3
3.4
4.0
3.9
4.2
3.9
3.7
3.8
4.2
3.9
3.9
3.8
4.0
4.1
4.3
4.1
4.1
3.3
3.9
3.7
4.0
3.6
3.9
4.0
3.7
4.1
3.9
3.6
3.8
4.0
3.8
3.9
3.8
4.2
4.5
4.1
3.8
3.8
4.0
4.1
4.3
3.9
4.0
4.2
4.0
4.0
4.0
3.8
3.5
4.1
3.6
3.7
3.9
3.8
4.3
3.7
3.3
3.8
3.9
4.0
3.7
4.1
4.0
3.9
3.4
3.8
3.7
4.2
4.3
4.3
3.9
4.2
4.0
4.1
4.2
4.1
3.8
3.9
4.3
4.1
4.0
4.1
4.2
4.0
3.7
4.3
3.9
3.9
3.7
3.8
3.9
3.4
4.2
4.2
4.4
3.8
3.6
4.0
3.9
3.8
4.3
4.2
3.9
3.9
3.8
4.0
3.7
3.6
4.0
4.0
3.6
4.1
4.0
3.6
3.7
4.0
4.1
4.1
3.7
3.3
4.1
3.8
3.8
4.0
4.0
3.8
4.5
4.3
3.8
3.8
4.0
3.8
4.0
3.9
4.0
3.8
4.4
3.8
3.9
3.6
3.9
3.8
3.9
3.8
3.9
4.2
4.2
4.0
3.9
4.2
3.9
4.2
3.9
4.1
4.1
3.7
3.7
4.1
4.2
3.6
4.1
3.7
3.8
3.9
3.9
4.0
4.1
3.8
3.9
4.1
4.0
3.9
4.0
3.8
4.1
4.5
4.0
3.8
4.1
4.0
3.9
3.8
4.2
4.3
4.3
4.2
3.0
3.5
3.7
4.1
3.8
4.0
3.7
3.7
4.1
4.1
4.0
3.6
4.1
4.0
3.8
3.8
4.0
4.2
3.9
4.0
3.6
4.0
4.2
4.1
3.9
4.1
4.1
3.9
4.1
4.3
4.2
3.9
3.7
4.4
4.2
4.1
4.2
4.2
3.9
4.1
4.1
3.8
3.9
4.3
3.9
3.9
4.1
4.1
4.3
3.6
4.0
4.2
3.7
4.0
3.9
3.5
3.8
3.8
3.7
3.8
3.3
3.9
3.6
4.0
3.9
4.3
4.4
3.8
4.0
3.8
4.0
4.3
4.0
3.9
3.9
4.1
4.1
3.9
3.7
4.2
4.0
3.7
3.4
3.6
3.6
3.7
4.0
4.1
4.4
3.9
3.8
3.9
3.8
3.8
4.0
3.3
4.3
3.8
3.9
3.7
4.2
4.1
4.1
4.0
4.1
3.9
3.3
4.0
4.0
4.2
3.8
3.7
3.8
4.0
4.2
3.8
4.0
4.4
4.1
4.4
4.3
3.8
3.8
4.2
3.5
4.1
4.1
3.7
4.0
3.8
3.9
3.8
3.6
3.6
4.3
3.7
3.7
3.7
4.0
4.0
3.6
3.7
3.9
4.0
3.7
3.5
4.4
3.8
3.8
4.4
3.9
4.2
3.5
3.5
4.0
3.9
4.1
3.9
4.1
4.1
4.0
4.0
3.8
3.6
3.8
4.0
3.4
3.6
4.4
4.1
4.3
3.6
4.1
3.8
3.7
3.8
4.2
4.3
3.6
4.4
3.4
4.1
4.2
4.0
3.9
4.1
4.1
3.3
4.2
4.0
4.0
3.9
3.9
3.9
4.0
3.9
4.1
4.1
3.7
3.8
4.3
4.2
4.4
3.8
4.1
4.1
3.6
3.9
4.0
3.6
4.0
3.9
3.7
3.6
4.4
4.1
3.6
4.2
3.9
3.9
4.1
4.0
4.1
4.3
3.9
4.1
3.9
4.3
4.0
3.9
3.8
4.2
3.8
3.8
3.8
4.0
3.6
3.8
3.2
4.3
4.3
3.7
4.1
4.1
4.2
3.3
4.1
3.6
4.3
4.1
4.0
4.2
3.9
3.9
4.0
4.2
3.4
3.7
3.8
4.3
4.2
4.2
3.7
3.7
4.1
4.3
4.0
3.9
3.6
3.8
3.7
3.7
4.2
3.8
3.7
4.0
4.1
4.3
4.0
3.9
3.5
4.2
3.9
3.8
3.9
4.2
3.7
3.8
3.7
4.4
4.1
3.8
3.7
3.8
3.9
4.2
3.9
3.8
3.8
4.3
4.1
4.3
3.9
4.3
4.0
4.0
4.2
4.1
3.6
4.5
4.3
3.7
4.2
4.1
3.9
4.4
4.2
4.0
4.2
4.3
4.0
4.3
4.1
3.9
4.1
4.0
4.0
4.1
3.9
3.9
3.6
4.0
4.0
3.3
3.9
3.6
3.9
4.1
3.4
3.7
4.1
4.1
4.0
3.6
4.0
3.7
3.9
4.1
3.2
4.1
4.4
3.8
3.9
4.0
3.7
3.9
4.1
3.8
4.2
3.9
3.9
4.0
4.3
3.9
3.7
3.7
4.0
3.5
4.0
4.0
3.8
4.2
3.6
3.5
4.1
4.1
3.5
4.0
3.9
4.1
4.1
4.1
3.8
4.1
3.9
4.1
3.6
3.9
4.1
4.3
3.7
4.0
3.9
3.6
3.6
3.5
3.9
3.9
4.1
3.6
3.7
4.0
3.9
3.1
4.2
4.1
4.0
3.4
4.1
4.0
3.6
4.0
3.9
3.9
4.1
4.0
3.8
3.7
4.2
3.8
3.6
4.0
4.1
3.5
4.2
4.2
3.7
4.3
4.0
4.2
4.0
4.0
3.9
4.0
3.9
3.8
3.5
3.8
3.6
4.4
3.6
4.0
3.9
4.1
3.4
4.0
3.6
3.7
3.4
3.5
3.8
3.8
3.5
3.5
4.4
4.1
4.2
3.5
3.7
4.2
3.9
4.0
3.6
3.7
4.3
3.9
4.4
3.5
3.9
3.7
4.0
3.3
3.9
4.2
3.8
4.1
4.1
4.1
4.0
4.1
3.9
4.0
3.8
4.3
3.7
4.0
4.3
4.2
3.9
4.2
4.0
4.2
4.1
3.7
3.5
3.5
3.9
4.2
4.2
4.1
4.1
4.1
3.8
3.7
4.0
4.2
4.3
3.5
4.0
3.9
3.9
3.9
3.4
3.8
4.1
4.1
4.0
3.9
3.7
4.4
4.2
4.2
4.1
4.0
4.0
3.9
3.6
4.3
4.1
3.8
4.1
3.5
3.6
3.9
4.1
4.0
3.9
4.1
4.2
3.7
3.9
3.9
4.1
4.0
3.7
3.9
3.7
3.4
3.8
3.8
3.7
4.1
3.7
4.0
4.1
4.0
3.7
4.2
3.7
4.4
3.9
3.6
3.7
4.2
3.9
4.2
4.2
3.7
4.0
4.1
4.0
3.9
4.0
4.0
3.8
3.9
4.3
4.2
4.0
3.8
3.1
3.8
4.3
3.9
4.1
4.0
3.8
4.0
3.8
4.1
3.8
4.2
4.3
3.6
4.1
4.3
3.5
4.1
4.3
4.2
3.9
4.5
3.8
3.9
3.9
4.2
3.4
4.1
3.9
3.7
4.0
3.7
4.2
4.0
4.1
3.9
4.3
4.3
4.1
4.5
4.1
3.8
3.6
3.6
4.0
3.9
4.1
4.0
3.8
4.0
4.2
4.0
4.2
3.8
3.9
3.5
4.0
4.0
4.3
3.8
4.1
3.9
4.2
4.1
4.3
4.0
4.3
4.0
4.1
4.1
4.3
4.1
4.0
3.8
3.8
3.9
4.0
4.0
3.9
3.9
4.3
4.0
3.9
4.4
4.2
4.0
4.3
4.2
4.0
3.8
3.8
4.2
3.7
3.9
4.0
4.0
4.0
4.0
4.1
3.5
3.9
4.2
4.3
3.7
3.8
3.3
4.1
4.0
3.7
3.9
4.0
3.7
4.2
3.9
4.0
3.9
3.9
3.8
3.7
3.9
4.1
3.7
4.0
3.7
3.5
4.0
4.1
4.0
3.7
3.8
4.0
4.2
3.7
4.2
3.8
3.8
3.9
4.2
4.3
3.8
3.6
3.7
4.0
4.0
3.7
3.9
4.1
3.5
3.5
3.6
4.1
4.1
4.1
4.3
3.9
4.0
3.9
3.7
3.5
4.1
4.4
4.0
3.6
3.6
3.7
4.3
3.9
4.2
4.0
4.0
3.8
4.0
3.8
3.9
4.2
4.2
4.0
4.2
4.1
3.9
3.4
4.0
3.8
3.9
4.2
4.4
4.0
4.0
4.1
4.1
3.9
4.2
4.0
3.9
3.7
3.6
3.7
3.9
4.0
3.8
4.2
3.7
4.0
3.8
3.6
3.5
4.3
4.0
3.9
4.0
3.7
3.9
3.9
3.6
3.6
4.1
3.8
4.1
4.0
3.8
3.8
3.9
4.2
3.9
3.8
3.7
4.1
4.0
3.6
4.1
3.9
4.0
4.0
4.0
3.9
3.8
4.3
4.3
3.9
4.0
4.2
3.9
4.2
3.8
4.0
3.9
4.0
4.1
3.7
4.1
4.0
4.0
3.8
4.0
4.0
3.8
3.9
3.9
5294:
4.0
3.6
3.8
3.5
3.9
3.7
3.8
3.6
3.9
3.8
3.8
3.9
4.2
4.0
3.9
5295:
4.1
3.1
3.3
5296:
3.3
3.6
3.4
3.4
3.2
3.4
3.5
3.4
3.4
3.3
3.8
3.4
3.6
3.6
3.5
3.3
3.5
3.3
3.2
3.3
3.2
3.3
3.5
3.2
3.3
3.4
3.4
3.2
3.4
3.5
3.7
3.3
3.4
3.5
3.5
3.5
3.2
3.1
3.6
3.3
3.6
3.3
3.5
3.3
3.4
3.2
3.5
3.1
3.5
3.6
3.4
3.3
3.6
3.1
3.5
3.3
3.3
3.4
3.4
3.2
3.1
3.1
3.4
3.6
3.6
3.2
3.5
3.6
3.1
3.2
3.4
3.6
3.3
3.4
3.5
3.4
3.3
3.0
3.6
3.0
2.8
3.4
2.9
3.8
3.1
3.3
3.2
3.4
3.0
3.0
3.4
3.8
5297:
4.0
4.1
4.0
4.2
4.1
4.2
3.3
4.3
4.3
3.9
3.9
3.8
4.0
3.7
4.3
4.2
3.8
3.4
4.1
3.9
3.9
3.9
4.6
3.9
4.0
4.0
3.9
4.2
4.6
3.9
4.1
3.9
4.1
3.9
4.3
4.3
3.9
4.3
4.1
4.0
4.0
3.9
3.9
4.2
4.0
3.9
4.0
3.9
4.2
4.6
3.9
4.0
4.1
4.0
3.4
4.2
4.2
4.3
4.0
4.0
3.6
4.4
4.0
3.7
3.9
3.8
4.2
4.2
4.3
4.0
3.8
4.4
3.9
4.0
4.4
4.2
4.0
4.3
4.3
4.1
4.1
3.9
4.0
4.3
4.1
4.1
3.9
4.1
3.9
3.9
5298:
3.7
3.9
4.0
3.8
3.8
3.8
3.9
3.8
3.8
3.9
3.7
3.6
3.8
3.6
3.5
3.2
3.7
3.0
3.6
4.0
3.7
3.6
3.7
3.7
3.9
3.6
3.4
3.7
4.1
3.7
3.6
3.6
3.3
3.6
3.8
3.7
3.3
3.9
3.6
3.5
3.6
3.9
3.5
3.4
3.4
3.6
3.4
3.8
3.7
3.6
4.0
4.0
3.8
4.1
3.7
3.6
3.6
3.8
3.8
4.3
3.7
3.7
3.8
3.5
3.9
3.2
3.7
3.8
3.6
3.7
3.9
3.7
3.8
3.7
3.4
4.0
4.0
4.0
4.1
3.4
3.4
3.8
3.8
3.7
4.0
5299:
4.1
3.9
3.4
3.8
2.2
4.1
3.4
3.4
3.7
4.0
3.8
4.0
3.8
4.0
3.7
3.9
4.1
3.8
4.2
3.8
3.7
3.5
4.2
3.9
3.9
3.6
3.6
3.6
4.3
3.5
3.8
3.9
3.4
53:
2.7
530:
3.1
3.0
5300:
3.3
3.5
5301:
3.1
5302:
3.8
3.5
3.7
3.7
3.8
4.1
4.1
3.7
3.9
3.8
3.9
3.6
3.8
3.8
4.2
3.6
3.4
3.8
4.2
3.7
5303:
3.5
3.6
5304:
3.6
3.8
3.4
3.3
3.0
3.5
3.4
3.3
3.6
3.5
3.5
4.2
3.7
3.4
3.0
4.0
3.4
3.7
3.2
3.4
3.6
3.7
3.6
3.7
3.6
3.5
3.5
3.7
3.7
3.4
3.4
3.5
3.7
3.6
4.0
3.4
5305:
3.1
3.6
3.1
3.2
3.5
3.2
3.2
3.3
3.6
3.6
4.1
3.0
3.6
3.7
5306:
3.7
3.9
3.6
4.0
3.9
3.3
3.7
3.5
3.8
3.7
3.8
3.7
3.5
3.8
5307:
3.5
5308:
3.5
3.2
3.3
3.1
3.7
3.6
3.9
3.7
3.4
3.5
3.7
3.4
3.6
3.6
3.5
3.0
3.3
3.4
3.4
3.4
3.4
3.1
3.5
3.3
3.5
2.5
3.3
3.1
0.86
