1:
3.77971003558
3.37971003558
3.68671003558
4.80371003558
3.79071003558
3.9947100355800003
3.4787100355800002
3.78971003558
4.12371003558
3.61071003558
3.05771003558
3.68071003558
4.06471003558
4.087710035580001
2.87271003558
4.03471003558
3.67671003558
4.600710035580001
4.2227100355800005
4.272710035579999
3.16671003558
5.0
3.6157100355800003
10:
2.98571003558
2.73171003558
1000:
3.27671003558
2.9677100355799997
2.67971003558
4.679710035579999
3.8067100355799997
3.43671003558
3.30471003558
3.96671003558
3.02571003558
2.53771003558
3.3217100355799998
3.5687100355799997
3.27671003558
4.3637100355800005
3.9547100355800002
3.07471003558
3.04071003558
3.0677100355799998
3.2297100355799997
3.67971003558
3.41271003558
3.95371003558
2.4147100355799997
3.08671003558
1006:
4.22971003558
4.37071003558
3.61971003558
4.51271003558
4.37571003558
4.27671003558
4.20971003558
5.0
4.189710035579999
4.11771003558
3.82971003558
3.81271003558
4.24971003558
4.51271003558
4.72971003558
3.89571003558
4.821710035580001
5.0
4.776710035580001
4.715710035579999
3.86171003558
3.29471003558
4.10171003558
3.87671003558
3.87371003558
4.35871003558
3.92171003558
3.95771003558
4.20771003558
5.0
10060:
2.76771003558
2.6327100355799997
4.003710035579999
2.81071003558
2.51271003558
2.62571003558
3.18271003558
3.4557100355799997
3.8677100355799996
10061:
3.72071003558
4.01171003558
4.9487100355799996
4.14571003558
4.5787100355799994
4.62971003558
5.0
4.33271003558
4.64871003558
4.33271003558
5.0
4.404710035579999
3.8087100355799994
3.9657100355799995
4.548710035579999
4.788710035579999
4.70371003558
5.0
4.27471003558
4.09271003558
4.32671003558
5.0
3.72871003558
4.41571003558
4.24971003558
4.97071003558
4.820710035579999
4.89071003558
4.1027100355799995
3.9757100355799997
5.0
4.48071003558
4.109710035579999
4.296710035579999
4.647710035579999
4.721710035579999
4.62371003558
3.8967100355799995
5.0
4.60171003558
5.0
4.40671003558
4.57171003558
5.0
4.567710035579999
4.82971003558
4.9487100355799996
4.60371003558
5.0
4.465710035579999
4.1507100355799995
4.46271003558
4.06871003558
4.522710035579999
5.0
4.962710035579999
4.76771003558
4.96971003558
4.0947100355799995
3.2907100355799996
4.04371003558
4.3767100355799995
4.47271003558
4.679710035579999
4.4167100355799995
3.9027100355799997
3.87771003558
5.0
4.33271003558
5.0
4.13671003558
4.1507100355799995
5.0
4.641710035579999
4.1907100355799995
5.0
4.58171003558
4.689710035579999
10171:
3.72471003558
3.67771003558
3.21571003558
3.60371003558
3.28471003558
2.96071003558
3.19471003558
3.3827100355799997
3.75171003558
10172:
3.89471003558
3.6527100355799997
3.2817100355799997
4.64671003558
3.66171003558
4.37271003558
4.24471003558
3.42371003558
3.29671003558
3.62271003558
3.51671003558
3.31471003558
1.58071003558
2.65371003558
3.70471003558
3.73671003558
3.37571003558
3.0317100355799997
2.64671003558
3.15371003558
3.9537100355800003
3.62371003558
2.98571003558
2.99771003558
3.93471003558
3.2857100355799997
3.63871003558
3.18771003558
2.98571003558
4.20271003558
3.52871003558
3.1767100355799998
3.54971003558
3.48871003558
2.94771003558
4.17671003558
3.38371003558
3.65371003558
3.49071003558
3.85171003558
3.67871003558
2.38971003558
10173:
3.38671003558
3.36771003558
2.97671003558
2.9627100355800002
2.68071003558
3.26171003558
1.77871003558
3.2807100355800003
3.19371003558
4.3477100355800005
2.91871003558
3.1667100355800004
3.2647100355800003
3.86371003558
2.92771003558
2.31071003558
2.7647100355800003
3.04771003558
2.50371003558
3.53971003558
2.71371003558
3.1477100355800003
2.8537100355800002
2.81171003558
2.9177100355800003
2.3127100355800003
2.63671003558
2.8807100355800004
4.12671003558
3.1877100355800003
2.6107100355800004
4.0207100355800005
2.96471003558
2.68271003558
3.61871003558
3.06171003558
3.42271003558
2.9737100355800004
3.85071003558
3.09771003558
2.85571003558
3.53671003558
3.1797100355800003
3.33971003558
3.22271003558
3.4537100355800003
2.76171003558
2.72271003558
4.074710035580001
3.58671003558
2.81471003558
3.3687100355800004
3.10571003558
2.93571003558
2.2407100355800003
3.0177100355800004
3.4777100355800004
3.19471003558
3.69671003558
3.4867100355800003
3.79771003558
3.6737100355800005
3.1037100355800002
3.3897100355800003
3.64071003558
3.61071003558
2.8337100355800002
2.51271003558
3.95971003558
3.86071003558
3.18671003558
3.33071003558
2.9857100355800004
3.6307100355800004
2.5257100355800004
3.19671003558
3.0377100355800004
2.1587100355800004
3.4987100355800003
2.7237100355800004
2.6877100355800003
2.8967100355800004
2.84771003558
3.2357100355800004
2.9047100355800004
3.57171003558
3.5747100355800003
3.38371003558
2.99171003558
3.33971003558
3.49971003558
2.49171003558
2.67371003558
3.39971003558
3.2197100355800004
3.22271003558
3.3497100355800002
3.2247100355800002
3.20971003558
3.0097100355800004
3.7217100355800006
2.7037100355800003
3.7057100355800006
3.09771003558
3.17271003558
3.31571003558
2.99171003558
3.14571003558
3.85071003558
2.43171003558
3.32371003558
2.57671003558
2.99971003558
3.5057100355800004
2.7197100355800004
3.3737100355800003
2.4097100355800003
2.49971003558
3.29771003558
3.4087100355800004
2.6237100355800003
3.54471003558
3.3367100355800003
3.4547100355800002
2.54771003558
2.72971003558
3.4127100355800004
2.7357100355800004
2.65771003558
2.93571003558
3.4127100355800004
2.5877100355800002
2.80971003558
3.7667100355800005
3.58171003558
3.6337100355800005
3.4987100355800003
2.9537100355800003
4.12771003558
3.00371003558
3.76471003558
2.03271003558
3.3927100355800004
3.0147100355800003
2.71771003558
1.6067100355800004
2.8807100355800004
2.54771003558
2.57671003558
3.1547100355800004
3.19271003558
3.26671003558
3.2447100355800003
3.19371003558
2.5067100355800003
3.33571003558
3.0987100355800004
3.30671003558
2.5227100355800003
3.66471003558
2.62871003558
3.6017100355800005
2.7847100355800003
2.6387100355800004
3.5747100355800003
3.0267100355800003
2.9947100355800003
2.87471003558
3.31571003558
2.74171003558
3.1997100355800003
2.73471003558
2.6277100355800003
3.30771003558
3.5147100355800003
3.2407100355800003
3.11771003558
3.12871003558
3.3927100355800004
3.03571003558
3.2517100355800004
3.4377100355800003
3.6687100355800006
2.1347100355800004
3.24571003558
2.69071003558
3.1357100355800003
2.72171003558
3.2917100355800004
2.7927100355800003
3.5937100355800005
2.54771003558
4.006710035579999
2.95171003558
3.1547100355800004
2.55371003558
3.3527100355800004
2.7717100355800004
3.26171003558
3.34771003558
4.327710035580001
3.4657100355800003
2.8207100355800003
3.17471003558
3.21471003558
3.54771003558
2.6957100355800003
3.1307100355800004
2.7797100355800004
2.44471003558
2.9817100355800004
3.11771003558
2.8577100355800003
2.67271003558
2.72171003558
3.2487100355800003
3.5187100355800003
3.23871003558
2.3577100355800003
2.29771003558
2.3847100355800004
3.60571003558
3.0757100355800002
2.61671003558
10174:
2.82371003558
3.7897100355799997
3.2157100355800003
4.27771003558
3.53771003558
3.5997100355800002
3.5307100355800003
3.1797100355800003
3.41571003558
2.64071003558
3.63671003558
3.2887100355800003
3.51571003558
3.3977100355800003
3.38771003558
2.81971003558
3.40371003558
2.98771003558
3.9297100355800003
2.0907100355800003
3.52971003558
3.4867100355800003
4.73771003558
2.98771003558
3.02971003558
3.71771003558
3.29071003558
4.27571003558
2.61671003558
2.9707100355800002
3.41271003558
2.4707100355800002
2.91271003558
3.2197100355800004
3.66071003558
2.96871003558
4.66071003558
2.7727100355800003
2.74271003558
2.76371003558
3.49171003558
3.24171003558
3.11271003558
3.43871003558
3.8077100355800004
3.0427100355800003
3.14971003558
10175:
2.75071003558
2.69471003558
2.63271003558
2.78571003558
10176:
3.56471003558
4.064710035579999
3.7987100355799996
3.74671003558
3.18371003558
3.2247100355800002
2.96571003558
3.93571003558
3.43471003558
4.038710035579999
2.98971003558
3.2167100355800002
3.14571003558
2.61871003558
3.1037100355800002
3.00371003558
3.50471003558
4.042710035580001
3.29271003558
3.14571003558
4.596710035579999
3.9187100355799998
3.00971003558
3.40371003558
3.40471003558
3.3417100355800002
3.55171003558
3.70871003558
3.35571003558
10177:
1.73071003558
3.0897100355799996
1.77571003558
1.92071003558
1.9637100355800001
10178:
3.04771003558
3.9647100355800005
2.54071003558
3.0787100355800003
3.28571003558
3.41471003558
2.50771003558
2.53171003558
3.01171003558
3.07771003558
3.7097100355800006
2.1597100355800003
2.84771003558
3.0467100355800003
3.88871003558
2.9217100355800003
3.11771003558
2.30171003558
2.50571003558
3.36671003558
2.83471003558
3.3127100355800003
2.9457100355800003
3.82771003558
3.46871003558
3.5507100355800003
4.11171003558
2.6557100355800003
3.1957100355800003
3.38071003558
2.82671003558
2.7047100355800002
3.81971003558
3.50571003558
3.29071003558
3.00371003558
2.94271003558
4.38871003558
3.11671003558
3.12171003558
3.18471003558
3.4707100355800002
2.90871003558
2.92471003558
3.18871003558
3.2327100355800003
3.1477100355800003
3.67671003558
3.8027100355800005
3.69971003558
2.55271003558
3.16571003558
3.71371003558
3.33471003558
2.82171003558
3.29571003558
2.6917100355800003
2.11371003558
10179:
3.3007100355800003
4.08671003558
4.058710035580001
3.7967100355800003
4.31071003558
2.54371003558
3.8687100355800004
4.45071003558
4.18971003558
4.28571003558
4.132710035580001
3.9127100355800004
3.66871003558
3.89571003558
3.96471003558
3.84771003558
3.9817100355800004
3.91071003558
4.41871003558
4.26971003558
3.86671003558
3.6707100355800004
3.56371003558
4.07971003558
4.154710035580001
3.31071003558
3.54871003558
3.4167100355800004
3.43971003558
3.8407100355800003
4.43571003558
1018:
3.85471003558
1.83671003558
3.77971003558
3.46071003558
3.7067100355799996
3.7497100355799997
3.46771003558
4.05271003558
10181:
2.97871003558
2.24371003558
3.2897100355799997
2.55471003558
2.37871003558
2.34071003558
10182:
2.44871003558
3.32671003558
3.04871003558
3.27171003558
3.40971003558
3.31571003558
2.62371003558
3.22571003558
3.66671003558
3.17971003558
2.65571003558
3.25371003558
3.26871003558
2.54171003558
3.54171003558
2.81171003558
10183:
2.42971003558
10184:
3.02771003558
2.34671003558
3.1557100355800003
2.0237100355799997
1.88871003558
10185:
4.07871003558
3.57471003558
3.65371003558
3.46571003558
4.05371003558
3.90471003558
3.48171003558
4.08071003558
4.40271003558
3.94571003558
3.66171003558
3.85571003558
4.1187100355799995
3.50971003558
4.22171003558
3.84071003558
4.3077100355799995
3.67371003558
3.48371003558
5.0
10186:
4.37771003558
3.2117100355800003
3.5797100355800002
3.87771003558
3.6997100355800003
4.10971003558
3.84671003558
3.77871003558
3.5547100355800003
2.53971003558
3.4817100355800004
3.27071003558
3.43971003558
3.4897100355800004
3.3967100355800004
2.6637100355800003
2.8537100355800002
3.1717100355800003
2.79471003558
4.05071003558
3.1277100355800003
3.27471003558
3.3817100355800003
3.69771003558
2.85471003558
10188:
3.08071003558
3.5897100355800005
3.4587100355800002
10261:
2.4347100355799998
2.8547100355799997
3.19571003558
2.49771003558
2.71271003558
2.98871003558
2.0117100355799997
10262:
3.79271003558
3.00571003558
2.68571003558
10263:
3.5737100355800004
2.56871003558
2.66071003558
2.93871003558
3.69171003558
10265:
4.40371003558
4.3027100355800005
4.1187100355799995
3.62671003558
3.61471003558
3.11371003558
3.5997100355800002
10266:
3.26971003558
3.5137100355800004
3.1627100355800004
3.0617100355800004
3.42271003558
3.6677100355800003
10267:
2.61071003558
3.33071003558
3.84771003558
3.08571003558
3.3657100355800003
3.50771003558
4.2227100355800005
3.47371003558
10268:
2.81471003558
2.7797100355800004
3.30271003558
3.07071003558
2.4947100355800003
2.7797100355800004
10269:
2.47771003558
1027:
4.08271003558
3.31571003558
3.5237100355799997
3.01471003558
2.80471003558
2.98671003558
3.23171003558
4.27171003558
3.4957100355799997
3.79171003558
3.2257100355799997
3.80471003558
2.9347100355799998
4.7277100355799995
3.42771003558
3.2777100355799997
4.439710035579999
3.9237100355799996
3.26471003558
4.314710035579999
3.12571003558
4.00571003558
3.59171003558
4.000710035579999
2.88171003558
3.21671003558
3.75871003558
3.20471003558
4.070710035579999
4.22071003558
3.82071003558
3.43671003558
3.46271003558
3.20671003558
3.3017100355799998
3.59071003558
3.71871003558
3.9237100355799996
3.19571003558
2.92371003558
4.176710035579999
3.51271003558
3.8837100355799996
4.016710035579999
3.7417100355799997
3.79171003558
3.3267100355799997
3.11471003558
3.52671003558
3.37971003558
3.4147100355799997
3.76471003558
3.21871003558
3.21671003558
3.22671003558
3.85871003558
4.301710035579999
3.69171003558
3.53771003558
3.74671003558
3.19871003558
3.58371003558
3.80671003558
3.4517100355799997
4.13671003558
3.71571003558
3.90371003558
3.40371003558
2.97471003558
3.3867100355799997
3.40771003558
3.65371003558
3.7537100355799997
2.6287100355799997
3.4067100355799997
3.30871003558
2.46871003558
3.10671003558
3.8857100355800003
3.34171003558
3.77571003558
3.6727100355799998
3.29571003558
3.2297100355799997
4.148710035580001
3.5767100355799997
3.43271003558
3.7817100355799997
3.3017100355799998
3.25571003558
3.60571003558
3.46471003558
4.1777100355800005
3.6807100355799998
4.273710035580001
3.22471003558
3.93271003558
3.77171003558
3.61571003558
3.43171003558
3.52871003558
3.8547100355799997
3.25471003558
3.17371003558
3.43371003558
4.0097100355799995
3.51671003558
3.39171003558
2.82971003558
3.00271003558
3.37171003558
4.71371003558
4.3027100355800005
3.6367100355799997
3.60971003558
3.57571003558
3.32971003558
3.8457100355800002
3.8487100355799995
3.77571003558
3.47771003558
3.6807100355799998
3.02071003558
3.70471003558
3.87171003558
3.29471003558
3.9417100355800003
3.8017100355799998
3.9347100355799998
3.79571003558
3.4387100355799998
3.1927100355799998
3.72871003558
2.9757100355799997
3.23471003558
3.79971003558
3.3787100355799997
3.67171003558
3.93571003558
4.320710035579999
3.4347100355799998
2.67371003558
3.35271003558
4.0527100355800005
3.62571003558
3.6647100355799997
3.38971003558
3.36371003558
3.3667100355799997
3.25271003558
3.39371003558
3.32771003558
3.74071003558
3.57071003558
3.5637100355799998
3.7377100355799997
3.9447100355799996
4.05671003558
3.79471003558
4.100710035580001
3.93271003558
3.2697100355799997
3.65371003558
3.1207100355799997
3.68171003558
4.205710035579999
3.4597100355799997
3.7457100355799997
3.3667100355799997
3.6087100355799997
3.2497100355799997
4.46971003558
3.82571003558
4.0097100355799995
4.49671003558
3.01771003558
3.15071003558
3.74271003558
3.66571003558
3.34971003558
3.09171003558
3.25671003558
3.50171003558
3.47671003558
3.80771003558
3.79571003558
3.79071003558
3.14771003558
3.93871003558
4.1137100355800005
4.19071003558
3.60371003558
3.9427100355799998
3.9367100355799995
4.087710035580001
3.09971003558
3.61371003558
3.75471003558
3.35371003558
3.7737100355799997
3.10671003558
3.5557100355799998
3.9527100355799996
3.78471003558
4.273710035580001
3.8837100355799996
2.77071003558
3.61171003558
4.250710035579999
3.94671003558
2.9997100355799997
3.75971003558
3.2937100355799998
3.4637100355799997
4.080710035579999
2.92371003558
4.07871003558
4.045710035579999
3.75471003558
3.9257100355800003
3.9627100355800002
3.90371003558
3.42371003558
3.94071003558
3.22071003558
4.22071003558
3.57071003558
4.237710035579999
3.40171003558
3.04071003558
3.22271003558
2.94571003558
3.4877100355799997
3.82071003558
3.55771003558
3.24371003558
3.63871003558
1.80971003558
3.87371003558
3.1447100355799997
3.79471003558
3.58171003558
3.7137100355799997
3.99071003558
3.62671003558
3.73271003558
3.4387100355799998
3.46071003558
4.16271003558
3.59971003558
3.9767100355799996
3.6607100355799997
4.20171003558
4.1617100355800005
3.12271003558
3.3547100355799997
2.65371003558
3.8677100355799996
3.08371003558
3.97571003558
3.75171003558
3.11071003558
3.6327100355799997
3.8787100355799997
3.5477100355799998
3.50871003558
3.7737100355799997
4.090710035579999
3.4187100355799998
3.78071003558
3.31471003558
3.39171003558
3.6407100355799997
3.86571003558
4.38971003558
3.70671003558
3.48171003558
3.82071003558
3.6367100355799997
4.53171003558
3.6847100355799998
3.02071003558
4.02471003558
3.4597100355799997
3.59471003558
3.20471003558
3.60671003558
4.39071003558
3.86071003558
3.59171003558
3.82071003558
3.7097100355799997
3.34471003558
4.0977100355800005
3.76071003558
3.7297100355799997
4.36071003558
2.88371003558
3.82071003558
3.89771003558
3.68371003558
3.42871003558
3.61971003558
4.19171003558
3.64971003558
3.50071003558
3.52471003558
3.67371003558
3.7697100355799997
3.3347100355799997
4.03771003558
3.54671003558
3.6567100355799997
4.465710035579999
3.69171003558
3.49471003558
3.2617100355799997
4.022710035579999
3.5557100355799998
4.122710035579999
3.97471003558
3.75971003558
3.84171003558
3.69871003558
4.22671003558
3.50871003558
4.070710035579999
3.69371003558
3.22371003558
3.4757100355799997
4.45371003558
3.69571003558
3.6407100355799997
3.3547100355799997
3.95671003558
3.9257100355800003
3.6887100355799998
3.41271003558
3.35771003558
10271:
3.67171003558
4.02771003558
3.47771003558
3.32771003558
3.9987100355800003
3.06771003558
3.74471003558
3.79271003558
3.37371003558
3.74671003558
2.89471003558
4.13571003558
3.62871003558
2.76871003558
3.57671003558
4.70271003558
10272:
3.67371003558
4.09271003558
3.37071003558
3.6077100355800003
4.16971003558
4.80571003558
4.23671003558
3.69571003558
3.49671003558
4.88571003558
4.55271003558
3.50971003558
3.64071003558
4.80171003558
5.0
3.92771003558
4.28471003558
4.77471003558
3.88071003558
4.71271003558
4.74271003558
4.196710035580001
4.30771003558
3.61871003558
3.4587100355800002
4.06471003558
3.92471003558
4.53771003558
4.27471003558
3.77971003558
3.66571003558
3.44471003558
4.23271003558
4.52871003558
10273:
3.3467100355799997
3.56871003558
4.24871003558
3.2257100355799997
3.45371003558
4.37171003558
3.9597100355799997
3.88771003558
3.3707100355799997
2.9597100355799997
4.08571003558
4.6137100355800005
3.98071003558
3.76271003558
3.64571003558
4.28171003558
3.44071003558
4.08271003558
3.6207100355799997
3.48171003558
3.23571003558
4.07571003558
4.2597100355799995
3.48171003558
3.31871003558
4.48971003558
3.62771003558
3.26671003558
3.56071003558
2.8627100355799997
3.67471003558
3.13971003558
3.48271003558
4.08971003558
2.7857100355799997
4.9937100355799995
3.7137100355799997
3.41571003558
4.03171003558
3.95371003558
3.4467100355799998
4.401710035580001
3.8907100355799997
3.7857100355799997
3.40071003558
4.413710035579999
10274:
4.035710035579999
4.68771003558
4.18471003558
3.17971003558
3.74371003558
2.91371003558
3.71671003558
2.96071003558
2.89271003558
3.64771003558
3.85871003558
3.61071003558
3.56271003558
3.86671003558
3.09771003558
3.7957100355799995
4.46771003558
2.7137100355799997
2.92771003558
3.4957100355799997
3.16271003558
3.03271003558
2.28771003558
3.05871003558
2.97871003558
3.3587100355799997
3.14271003558
4.5207100355800005
3.1127100355799997
3.43271003558
2.88971003558
3.65571003558
3.01471003558
3.53471003558
3.33671003558
4.167710035580001
3.35771003558
3.04671003558
2.8097100355799998
2.43771003558
3.3907100355799997
3.09571003558
4.04771003558
3.89871003558
10275:
2.90871003558
3.58471003558
3.47671003558
3.77371003558
3.69071003558
3.61471003558
3.37171003558
3.31771003558
3.35571003558
3.84371003558
3.59771003558
4.03971003558
2.94971003558
3.08871003558
4.49771003558
3.15471003558
3.7247100355800002
3.7167100355800002
3.92271003558
4.49171003558
2.97671003558
4.21671003558
3.17671003558
3.37471003558
4.04171003558
4.09371003558
3.67771003558
3.75971003558
3.7087100355800002
3.92871003558
3.91371003558
4.57671003558
3.37671003558
3.65071003558
3.64371003558
3.74171003558
3.73771003558
3.68271003558
3.35771003558
3.63571003558
3.44871003558
3.96471003558
3.61871003558
3.65471003558
3.60371003558
3.38371003558
3.25171003558
3.62971003558
3.38071003558
3.50571003558
3.33571003558
3.72671003558
2.97671003558
3.14171003558
3.62971003558
2.70571003558
3.76971003558
4.00571003558
3.85871003558
3.69571003558
3.65471003558
3.4627100355800002
3.86971003558
3.02271003558
3.18071003558
3.26571003558
3.42671003558
3.25471003558
2.97671003558
3.61471003558
3.38771003558
3.71871003558
3.87871003558
3.68471003558
3.9707100355800002
3.61471003558
4.02471003558
4.03071003558
3.85771003558
3.67771003558
2.93371003558
4.56171003558
4.14771003558
3.92271003558
3.37971003558
3.18871003558
3.35371003558
3.23471003558
3.97371003558
2.97671003558
4.10471003558
3.2167100355800002
3.75271003558
3.93571003558
4.37271003558
3.96471003558
3.85871003558
3.43471003558
4.01971003558
4.23971003558
3.89371003558
3.65471003558
3.9907100355800003
3.29371003558
3.93371003558
3.85871003558
3.2127100355800002
3.57671003558
3.86471003558
3.51971003558
3.74771003558
4.10771003558
3.58971003558
3.91571003558
3.95371003558
4.75671003558
4.32271003558
4.01971003558
3.17871003558
3.30971003558
2.94571003558
3.53371003558
3.66471003558
4.09071003558
3.78671003558
3.14371003558
4.28671003558
4.00571003558
3.92271003558
3.76771003558
3.69671003558
3.75171003558
3.78171003558
3.78671003558
3.64371003558
3.80971003558
4.87971003558
3.55571003558
3.93971003558
4.30971003558
4.97671003558
3.50271003558
3.04371003558
3.0877100355800002
2.93871003558
3.60871003558
3.62371003558
3.22671003558
2.94171003558
3.9887100355799996
3.37671003558
3.71071003558
3.36071003558
3.55471003558
4.24171003558
2.71171003558
3.47671003558
4.19071003558
3.64371003558
4.30971003558
3.57371003558
3.97671003558
3.57671003558
4.11971003558
4.12471003558
3.53971003558
3.62171003558
3.08171003558
3.75071003558
3.68571003558
4.66471003558
3.7207100355800002
3.83071003558
2.88171003558
4.32371003558
3.51871003558
3.8337100355800002
3.93671003558
3.34771003558
3.27171003558
3.36671003558
3.60071003558
3.35371003558
3.99271003558
3.64971003558
3.05671003558
3.63871003558
3.91471003558
2.55571003558
3.20271003558
3.50171003558
4.12171003558
3.37671003558
4.34571003558
3.27171003558
3.39471003558
3.76371003558
3.91071003558
2.96371003558
3.72771003558
3.59271003558
3.69971003558
3.97671003558
3.06671003558
2.29071003558
3.2127100355800002
3.76971003558
3.96171003558
3.26471003558
3.82471003558
4.11671003558
3.69071003558
3.65771003558
3.57171003558
3.62471003558
3.11271003558
3.72671003558
3.61371003558
3.57071003558
3.28471003558
3.75471003558
3.81371003558
3.63171003558
3.62371003558
3.9887100355799996
2.91971003558
3.97671003558
3.20771003558
4.08771003558
3.02271003558
3.75471003558
4.55771003558
4.06471003558
3.65371003558
3.45771003558
3.8457100355800002
3.70671003558
3.16071003558
4.03571003558
4.09471003558
3.46471003558
4.53671003558
3.90571003558
4.10571003558
2.85871003558
3.47671003558
3.60571003558
2.84771003558
2.06271003558
3.50871003558
3.99571003558
3.48771003558
3.77271003558
4.05371003558
3.17071003558
2.80971003558
3.82171003558
3.41071003558
3.20671003558
4.01071003558
4.06771003558
3.55971003558
3.13971003558
4.43571003558
3.59071003558
3.51271003558
3.17671003558
3.28471003558
3.92371003558
4.08071003558
3.61371003558
3.81571003558
4.52571003558
4.18571003558
3.81471003558
3.77671003558
3.95571003558
4.2147100355800005
3.77671003558
3.91271003558
3.84371003558
3.12171003558
3.95671003558
3.60371003558
3.06071003558
2.85471003558
3.27471003558
4.05571003558
3.3297100355800002
3.66571003558
4.01371003558
4.21071003558
3.39071003558
3.83471003558
3.66971003558
3.48471003558
3.80671003558
4.35371003558
4.25471003558
3.08071003558
3.46071003558
4.06971003558
3.66171003558
2.65571003558
3.81871003558
3.37671003558
4.21071003558
4.0817100355800005
4.47671003558
3.28771003558
3.08071003558
3.68271003558
3.39071003558
3.75471003558
3.47671003558
3.90871003558
3.70271003558
3.55671003558
3.54771003558
3.88171003558
4.35771003558
3.40071003558
3.53271003558
2.89671003558
3.29071003558
3.50571003558
3.47171003558
4.38971003558
3.73371003558
3.17671003558
3.67571003558
3.94671003558
4.18171003558
3.56171003558
4.36271003558
3.97671003558
3.92971003558
3.50571003558
1031:
4.41271003558
3.75271003558
4.37571003558
4.43571003558
4.49371003558
4.31371003558
3.54271003558
3.43571003558
4.29471003558
3.29671003558
4.21971003558
4.366710035580001
4.09571003558
4.23971003558
4.179710035579999
4.14271003558
5.0
3.79371003558
4.08571003558
3.73371003558
4.22371003558
4.20071003558
3.91771003558
3.43271003558
3.96771003558
3.81971003558
3.76971003558
4.60471003558
3.81671003558
3.99671003558
3.93271003558
4.71371003558
4.1297100355800005
10311:
3.50671003558
3.78571003558
4.067710035579999
3.77271003558
4.53371003558
4.38671003558
4.18871003558
10312:
1.9617100355800001
1.8317100355800002
1.8267100355800003
1.4357100355800003
2.0127100355800005
1.6007100355800004
1.92671003558
1.9897100355800001
1.0
2.5077100355799997
1.2137100355800003
2.0607100355800005
10313:
4.215710035580001
4.25271003558
4.07571003558
3.8897100355800003
4.048710035580001
10314:
4.026710035580001
2.52471003558
3.8457100355800002
2.94471003558
4.1027100355799995
3.0267100355800003
3.33671003558
3.32371003558
3.52371003558
3.37971003558
3.7217100355799997
3.1517100355800003
3.1157100355800003
4.2387100355800005
3.85871003558
3.7857100355799997
3.47171003558
2.84471003558
3.39571003558
4.6937100355800006
2.75571003558
3.8327100355800003
2.69271003558
2.97371003558
4.026710035580001
2.8937100355800003
3.91371003558
3.6437100355800003
4.0097100355799995
3.3377100355800002
3.9077100355800005
3.56071003558
3.24371003558
3.68071003558
2.68171003558
3.83171003558
4.151710035580001
3.44371003558
2.97771003558
3.27571003558
3.86871003558
3.63371003558
3.56471003558
3.4017100355800003
3.44071003558
3.57871003558
3.36071003558
3.92471003558
3.32071003558
2.82171003558
4.497710035580001
2.73771003558
2.91171003558
3.78871003558
3.4217100355800003
3.1437100355800003
3.21771003558
3.04871003558
2.81371003558
2.9627100355800002
2.94871003558
3.71771003558
3.40371003558
4.048710035580001
2.9017100355800003
3.19071003558
3.0877100355800002
3.39471003558
3.43271003558
2.68271003558
2.82171003558
2.70771003558
3.22671003558
4.24871003558
3.55171003558
3.15771003558
4.43771003558
3.75171003558
3.25871003558
3.88171003558
3.27871003558
3.05371003558
3.64671003558
3.22171003558
3.8117100355800004
3.10471003558
3.12871003558
3.7697100355799997
3.07771003558
3.20971003558
3.29371003558
3.48071003558
2.79071003558
3.8647100355800004
3.78871003558
3.26971003558
3.6397100355800003
3.70971003558
3.29971003558
4.02171003558
3.6597100355800003
4.60771003558
4.06571003558
2.94971003558
3.36071003558
3.06871003558
3.69371003558
3.22371003558
4.026710035580001
2.5957100355800002
3.77071003558
2.9217100355800003
2.98971003558
3.62671003558
3.90871003558
2.78771003558
3.1037100355800002
3.34271003558
3.30371003558
4.349710035579999
3.5307100355800003
4.38771003558
4.21471003558
3.48171003558
3.2567100355800003
3.8017100355799998
3.40371003558
3.51971003558
4.06371003558
3.0587100355800003
3.29871003558
3.8967100355800004
3.22771003558
4.231710035580001
2.39071003558
3.41471003558
3.01371003558
3.5347100355800003
4.01571003558
3.17471003558
3.61071003558
3.39271003558
3.06871003558
3.4987100355800003
2.90771003558
3.53671003558
2.75171003558
3.10171003558
3.43871003558
3.44371003558
3.96671003558
3.43171003558
4.276710035580001
3.25471003558
3.37171003558
4.353710035580001
3.08171003558
3.11471003558
3.33471003558
2.98171003558
3.08071003558
2.86071003558
4.526710035580001
2.97971003558
3.07171003558
3.00171003558
2.08471003558
4.026710035580001
4.18571003558
2.2407100355800003
3.81271003558
3.68271003558
3.63071003558
3.1557100355800003
3.22671003558
4.1297100355800005
3.22271003558
2.3937100355800003
4.054710035579999
3.81871003558
3.68971003558
3.78871003558
4.157710035580001
4.058710035580001
3.3697100355800003
3.36071003558
4.497710035580001
3.13771003558
3.6757100355800003
2.74371003558
3.19971003558
3.26671003558
3.00971003558
3.10871003558
3.8297100355800002
3.0877100355800002
3.2367100355800003
3.0837100355800002
3.77871003558
3.26371003558
3.06371003558
2.87971003558
3.86071003558
4.01471003558
3.18171003558
4.154710035580001
3.88271003558
2.98571003558
3.5547100355800003
3.68571003558
3.5067100355800003
4.6937100355800006
3.18571003558
4.05371003558
3.0757100355800002
3.63471003558
3.37571003558
4.30071003558
3.76571003558
2.94471003558
3.9347100355799998
2.8297100355800002
3.4297100355800003
3.31471003558
3.50171003558
3.93071003558
2.64271003558
3.25771003558
3.3657100355800003
4.11071003558
3.17871003558
3.00971003558
4.00571003558
3.49671003558
3.25071003558
3.2167100355800002
3.58271003558
3.13271003558
4.1937100355800006
3.37271003558
3.58271003558
3.56071003558
4.33871003558
2.84071003558
3.23371003558
3.2487100355800003
3.26971003558
4.04371003558
2.83671003558
3.30571003558
3.80471003558
4.026710035580001
3.7537100355799997
2.4627100355800002
3.72571003558
3.6557100355800003
3.23171003558
3.39171003558
3.4587100355800002
3.48171003558
3.24771003558
3.3047100355800003
3.3167100355800003
4.12671003558
2.92371003558
3.57771003558
2.96571003558
3.15271003558
2.83071003558
2.87571003558
3.04471003558
3.22771003558
4.12771003558
3.56771003558
2.81471003558
3.44971003558
3.31071003558
2.9587100355800002
3.6317100355800003
3.56371003558
3.53371003558
3.1157100355800003
3.98271003558
3.94571003558
2.87571003558
2.91271003558
3.62271003558
3.18071003558
2.66171003558
2.94371003558
2.6517100355800003
2.64971003558
3.44471003558
2.83071003558
4.054710035579999
2.46871003558
3.4257100355800003
2.34771003558
3.7527100355800003
3.45271003558
0.96
